<?xml version="1.0" encoding="UTF-8"?>
<svg width="20px" height="20px" viewBox="0 0 20 20" version="1.1" xmlns="http://www.w3.org/2000/svg" xmlns:xlink="http://www.w3.org/1999/xlink">
    <!-- Generator: sketchtool 58 (101010) - https://sketch.com -->
    <title>134CB487-DF58-4B96-86B2-04E1604356B8@3x</title>
    <desc>Created with sketchtool.</desc>
    <g id="UI---Onboarding-flow" stroke="none" stroke-width="1" fill="none" fill-rule="evenodd">
        <g id="UI_V1_Mobile_Onboarding_Firsttime_07" transform="translate(-85.000000, -415.000000)" fill="#3B5998" fill-rule="nonzero">
            <g id="Button/Secondary/Active-Copy" transform="translate(24.000000, 401.000000)">
                <g id="Group">
                    <g id="Group-2" transform="translate(61.000000, 13.000000)">
                        <path d="M18.8932292,1 C19.5052083,1 20,1.49479167 20,2.10677083 L20,19.8932292 C20,20.5052083 19.5052083,21 18.8932292,21 L13.8020833,21 L13.8020833,13.2526042 L16.3932292,13.2526042 L16.7838542,10.2317708 L13.8020833,10.2317708 L13.8020833,8.3046875 C13.8020833,7.43229167 14.0364583,6.84635417 15.2994792,6.84635417 L16.8880208,6.83333333 L16.8880208,4.13802083 C16.6145833,4.09895833 15.6640625,4.02083333 14.5703125,4.02083333 C12.265625,4.02083333 10.6770833,5.42708333 10.6770833,8.00520833 L10.6770833,10.2317708 L8.07291667,10.2317708 L8.07291667,13.2526042 L10.6770833,13.2526042 L10.6770833,21 L1.10677083,21 C0.494791667,21 0,20.5052083 0,19.8932292 L0,2.10677083 C0,1.49479167 0.494791667,1 1.10677083,1 L18.8932292,1 Z" id=""></path>
                    </g>
                </g>
            </g>
        </g>
    </g>
</svg>